<mxfile host="app.diagrams.net" modified="2021-06-24T08:34:41.830Z" agent="5.0 (Macintosh)" etag="ji-CCqtP31I_uBquchJv" version="14.4.4" type="gitlab">
  <diagram id="ORtFFAfszygm5GTJ8NGe" name="Page-1">
    <mxGraphModel dx="1426" dy="851" grid="1" gridSize="10" guides="1" tooltips="1" connect="1" arrows="1" fold="1" page="1" pageScale="1" pageWidth="827" pageHeight="1169" math="0" shadow="0">
      <root>
        <mxCell id="0" />
        <mxCell id="1" parent="0" />
        <mxCell id="7fyAPxlvp4ciuovdJNt4-2" style="edgeStyle=orthogonalEdgeStyle;rounded=0;orthogonalLoop=1;jettySize=auto;html=1;entryX=0.5;entryY=0;entryDx=0;entryDy=0;" edge="1" parent="1" source="7fyAPxlvp4ciuovdJNt4-1" target="7fyAPxlvp4ciuovdJNt4-3">
          <mxGeometry relative="1" as="geometry">
            <mxPoint x="400" y="430" as="targetPoint" />
          </mxGeometry>
        </mxCell>
        <mxCell id="7fyAPxlvp4ciuovdJNt4-1" value="Fichiers TEI" style="whiteSpace=wrap;html=1;aspect=fixed;" vertex="1" parent="1">
          <mxGeometry x="360" y="200" width="80" height="80" as="geometry" />
        </mxCell>
        <mxCell id="7fyAPxlvp4ciuovdJNt4-10" style="edgeStyle=orthogonalEdgeStyle;rounded=0;orthogonalLoop=1;jettySize=auto;html=1;entryX=0.375;entryY=0;entryDx=0;entryDy=0;" edge="1" parent="1" source="7fyAPxlvp4ciuovdJNt4-3" target="7fyAPxlvp4ciuovdJNt4-8">
          <mxGeometry relative="1" as="geometry" />
        </mxCell>
        <mxCell id="7fyAPxlvp4ciuovdJNt4-17" value="signalement" style="edgeLabel;html=1;align=center;verticalAlign=middle;resizable=0;points=[];" vertex="1" connectable="0" parent="7fyAPxlvp4ciuovdJNt4-10">
          <mxGeometry x="-0.2098" y="-2" relative="1" as="geometry">
            <mxPoint as="offset" />
          </mxGeometry>
        </mxCell>
        <mxCell id="7fyAPxlvp4ciuovdJNt4-3" value="&lt;div&gt;Graph RDF LRMoo&lt;/div&gt;" style="whiteSpace=wrap;html=1;aspect=fixed;fillColor=#d80073;strokeColor=#A50040;fontColor=#ffffff;" vertex="1" parent="1">
          <mxGeometry x="360" y="400" width="80" height="80" as="geometry" />
        </mxCell>
        <mxCell id="7fyAPxlvp4ciuovdJNt4-16" style="edgeStyle=orthogonalEdgeStyle;rounded=0;orthogonalLoop=1;jettySize=auto;html=1;entryX=0.5;entryY=0;entryDx=0;entryDy=0;" edge="1" parent="1" source="7fyAPxlvp4ciuovdJNt4-8" target="7fyAPxlvp4ciuovdJNt4-15">
          <mxGeometry relative="1" as="geometry" />
        </mxCell>
        <mxCell id="7fyAPxlvp4ciuovdJNt4-21" value="&lt;div&gt;GraphQL + scripts Python&lt;/div&gt;" style="edgeLabel;html=1;align=center;verticalAlign=middle;resizable=0;points=[];" vertex="1" connectable="0" parent="7fyAPxlvp4ciuovdJNt4-16">
          <mxGeometry x="-0.1111" y="-1" relative="1" as="geometry">
            <mxPoint as="offset" />
          </mxGeometry>
        </mxCell>
        <mxCell id="7fyAPxlvp4ciuovdJNt4-8" value="DIRECTUS&lt;br&gt;&lt;br&gt;gestion des concepts&lt;br&gt;+&lt;br&gt;création des indexations" style="shape=hexagon;perimeter=hexagonPerimeter2;whiteSpace=wrap;html=1;fixedSize=1;" vertex="1" parent="1">
          <mxGeometry x="400" y="600" width="200" height="120" as="geometry" />
        </mxCell>
        <mxCell id="7fyAPxlvp4ciuovdJNt4-12" style="edgeStyle=orthogonalEdgeStyle;rounded=0;orthogonalLoop=1;jettySize=auto;html=1;entryX=0.5;entryY=0;entryDx=0;entryDy=0;fillColor=#d5e8d4;" edge="1" parent="1" source="7fyAPxlvp4ciuovdJNt4-11" target="7fyAPxlvp4ciuovdJNt4-8">
          <mxGeometry relative="1" as="geometry" />
        </mxCell>
        <mxCell id="7fyAPxlvp4ciuovdJNt4-20" value="&lt;div&gt;scripts Python&lt;/div&gt;&amp;nbsp;+ API REST" style="edgeLabel;html=1;align=center;verticalAlign=middle;resizable=0;points=[];" vertex="1" connectable="0" parent="7fyAPxlvp4ciuovdJNt4-12">
          <mxGeometry x="-0.05" y="2" relative="1" as="geometry">
            <mxPoint as="offset" />
          </mxGeometry>
        </mxCell>
        <mxCell id="7fyAPxlvp4ciuovdJNt4-11" value="&lt;div&gt;OpenTheso&lt;/div&gt;&lt;div&gt;Excel&lt;/div&gt;" style="whiteSpace=wrap;html=1;aspect=fixed;" vertex="1" parent="1">
          <mxGeometry x="460" y="200" width="80" height="80" as="geometry" />
        </mxCell>
        <mxCell id="7fyAPxlvp4ciuovdJNt4-15" value="RDF CRM&lt;br&gt;concepts + indexations" style="whiteSpace=wrap;html=1;aspect=fixed;fillColor=#d80073;strokeColor=#A50040;fontColor=#ffffff;" vertex="1" parent="1">
          <mxGeometry x="460" y="860" width="80" height="80" as="geometry" />
        </mxCell>
        <mxCell id="7fyAPxlvp4ciuovdJNt4-19" value="" style="pointerEvents=1;shadow=0;dashed=0;html=1;strokeColor=none;labelPosition=center;verticalLabelPosition=bottom;verticalAlign=top;align=center;fillColor=#505050;shape=mxgraph.mscae.intune.user_group" vertex="1" parent="1">
          <mxGeometry x="270" y="221.5" width="50" height="37" as="geometry" />
        </mxCell>
      </root>
    </mxGraphModel>
  </diagram>
</mxfile>
